{
    "perl" : "6.c",
    "name" : "Podviewer",
    "version" : "0.0.2",
    "auth" : "gitlab:uzluisf",
    "authors" : [ "Luis F. Uceta" ],
    "description" : "A simple GUI application for previewing Pod files",
    "license" : "Artistic-2.0",
    "source-url" : "git://gitlab.com/uzluisf/podviewer.git",
    "tags": ["Pod", "Previewer", "HTML"],
    "provides" : { 
        "podviewer" : "bin/podviewer",
        "App::Podviewer" : "lib/App/Podviewer.pm6"
    },
    "resources" : [ "css/github.css" ],
    "depends" : [ "Pod::To::HTML" ],
    "build-depends" : [ ],
    "test-depends" : [ ]
}
